PUmodul/comparator/comparator_tb.vcd
$date
  Mon Jan 31 21:46:29 2022
$end
$version
  GHDL v0
$end
$timescale
  1 fs
$end
$scope module standard $end
$upscope $end
$scope module std_logic_1164 $end
$upscope $end
$scope module numeric_std $end
$upscope $end
$scope module comparator_tb $end
$var reg 1 ! clk $end
$var reg 1 " reset $end
$var reg 1 # i_val_comp $end
$var reg 1 $ o_val_comp $end
$var reg 32 % a[31:0] $end
$var reg 32 & b[31:0] $end
$var reg 1 ' a_comp_b $end
$scope module inst_comp $end
$var reg 1 ( clk $end
$var reg 1 ) reset $end
$var reg 1 * i_val_comp $end
$var reg 32 + a[31:0] $end
$var reg 32 , b[31:0] $end
$var reg 1 - o_val_comp $end
$var reg 1 . a_comp_b $end
$var reg 32 / first_dff_comp[31:0] $end
$var reg 1 0 comp_result $end
$var reg 2 1 delay_val_comp[1:0] $end
$upscope $end
$upscope $end
$enddefinitions $end
#0
1!
1"
1#
U$
b00000000000000000001000000000000 %
b00000000000000000000000000000000 &
0'
1(
1)
1*
b00000000000000000001000000000000 +
b00000000000000000000000000000000 ,
U-
0.
b00000000000000000000000000000000 /
00
bUU 1
#1000000
0!
0"
0(
0)
10
#2000000
1!
1(
b00000000000000000001000000000000 /
bU1 1
#3000000
0!
0(
#4000000
1!
1(
b11 1
#5000000
0!
b00000000000000000000000000000000 %
b00000000000000000000000000000001 &
0(
b00000000000000000000000000000000 +
b00000000000000000000000000000001 ,
#6000000
1!
1$
1'
1(
1-
1.
b00000000000000000000000000000000 /
#7000000
0!
0(
00
#8000000
1!
0'
1(
0.
#9000000
0!
0(
#10000000
1!
b00000000000000000000000000000000 &
1(
b00000000000000000000000000000000 ,
10
#11000000
0!
0(
#12000000
1!
1'
1(
1.
#13000000
0!
0(
#14000000
1!
1(
#15000000
0!
b00010001000100010001000100010001 &
0(
b00010001000100010001000100010001 ,
00
#16000000
1!
0'
1(
0.
